{
  "project_info": {
    "project_number": "849711681305",
    "project_id": "teddy-f7431",
    "storage_bucket": "teddy-f7431.appspot.com"
  },
  "client": [
    {
      "client_info": {
        "mobilesdk_app_id": "1:849711681305:android:6f509b5cac8c2f3751ff88",
        "android_client_info": {
          "package_name": "com.rainbow.teddy"
        }
      },
      "oauth_client": [],
      "api_key": [
        {
          "current_key": "AIzaSyCi_RqTr-HFiUvKta-Xb8iHp7gqTKDrMco"
        }
      ],
      "services": {
        "appinvite_service": {
          "other_platform_oauth_client": []
        }
      }
    }
  ],
  "configuration_version": "1"
}