%YAML 1.1
%TAG !u! tag:unity3d.com,2011:
--- !u!1 &5771167763574978592
GameObject:
  m_ObjectHideFlags: 0
  m_CorrespondingSourceObject: {fileID: 0}
  m_PrefabInstance: {fileID: 0}
  m_PrefabAsset: {fileID: 0}
  serializedVersion: 6
  m_Component:
  - component: {fileID: 5771167763574978606}
  - component: {fileID: 5771167763574978607}
  m_Layer: 0
  m_Name: Path
  m_TagString: Path
  m_Icon: {fileID: 0}
  m_NavMeshLayer: 0
  m_StaticEditorFlags: 0
  m_IsActive: 1
--- !u!4 &5771167763574978606
Transform:
  m_ObjectHideFlags: 0
  m_CorrespondingSourceObject: {fileID: 0}
  m_PrefabInstance: {fileID: 0}
  m_PrefabAsset: {fileID: 0}
  m_GameObject: {fileID: 5771167763574978592}
  m_LocalRotation: {x: 0.7071068, y: -0, z: 0.7071068, w: 0}
  m_LocalPosition: {x: -0.54, y: 0.35, z: 4.34}
  m_LocalScale: {x: 1, y: 1, z: 1}
  m_ConstrainProportionsScale: 0
  m_Children: []
  m_Father: {fileID: 0}
  m_RootOrder: 0
  m_LocalEulerAnglesHint: {x: 180, y: -90, z: 0}
--- !u!114 &5771167763574978607
MonoBehaviour:
  m_ObjectHideFlags: 0
  m_CorrespondingSourceObject: {fileID: 0}
  m_PrefabInstance: {fileID: 0}
  m_PrefabAsset: {fileID: 0}
  m_GameObject: {fileID: 5771167763574978592}
  m_Enabled: 1
  m_EditorHideFlags: 0
  m_Script: {fileID: 11500000, guid: 8e5ac92bc18f545cc84cd886ece82b4d, type: 3}
  m_Name: 
  m_EditorClassIdentifier: 
  editorData:
    _bezierPath:
      points:
      - {x: -4.3081794, y: 0.38116586, z: 0.0000061988803}
      - {x: -0.5578537, y: 0.38116667, z: 0.0000010728832}
      - {x: 6.942797, y: 0.38116828, z: -0.000009179112}
      - {x: 10.693123, y: 0.38116908, z: -0.000014305108}
      isClosed: 0
      space: 0
      controlMode: 3
      autoControlLength: 0.01
      boundsUpToDate: 0
      bounds:
        m_Center: {x: 2.0691745, y: -0.43201587, z: 0}
        m_Extent: {x: 2.3848917, y: 0.43335608, z: 0}
      perAnchorNormalsAngle:
      - 0
      - 0
      globalNormalsAngle: 270
      flipNormals: 0
    vertexPathUpToDate: 1
    vertexPathMaxAngleError: 0
    vertexPathMinVertexSpacing: 0
    showTransformTool: 1
    showPathBounds: 0
    showPerSegmentBounds: 0
    displayAnchorPoints: 1
    displayControlPoints: 1
    bezierHandleScale: 1
    globalDisplaySettingsFoldout: 0
    keepConstantHandleSize: 0
    showNormalsInVertexMode: 0
    showBezierPathInVertexMode: 0
    showDisplayOptions: 1
    showPathOptions: 1
    showVertexPathDisplayOptions: 1
    showVertexPathOptions: 1
    showNormals: 1
    showNormalsHelpInfo: 0
    tabIndex: 0
  initialized: 1
