%YAML 1.1
%TAG !u! tag:unity3d.com,2011:
--- !u!114 &11400000
MonoBehaviour:
  m_ObjectHideFlags: 0
  m_CorrespondingSourceObject: {fileID: 0}
  m_PrefabInstance: {fileID: 0}
  m_PrefabAsset: {fileID: 0}
  m_GameObject: {fileID: 0}
  m_Enabled: 1
  m_EditorHideFlags: 0
  m_Script: {fileID: 11500000, guid: 5483372d3cadae54eab8f28a35ffd2c0, type: 3}
  m_Name: DataLevel
  m_EditorClassIdentifier: 
  listLevel:
  - nodeFindList:
    - id: 88
      amount: 1
    - id: 0
      amount: 1
    - id: 89
      amount: 1
    obstacles:
    - id: 52
      amount: 1
    - id: 28
      amount: 1
    - id: 113
      amount: 1
    - id: 130
      amount: 1
    - id: 85
      amount: 1
    - id: 14
      amount: 1
    - id: 96
      amount: 1
    - id: 108
      amount: 1
    - id: 134
      amount: 1
    - id: 101
      amount: 1
    time: 600
  - nodeFindList:
    - id: 90
      amount: 15
    obstacles:
    - id: 92
      amount: 25
    time: 300
  - nodeFindList:
    - id: 120
      amount: 10
    - id: 106
      amount: 10
    obstacles:
    - id: 16
      amount: 10
    - id: 109
      amount: 9
    - id: 105
      amount: 5
    - id: 111
      amount: 10
    - id: 102
      amount: 6
    time: 240
  - nodeFindList:
    - id: 102
      amount: 4
    - id: 110
      amount: 6
    obstacles:
    - id: 96
      amount: 10
    - id: 100
      amount: 10
    - id: 87
      amount: 10
    - id: 92
      amount: 10
    time: 240
  - nodeFindList:
    - id: 19
      amount: 10
    - id: 116
      amount: 8
    obstacles:
    - id: 131
      amount: 8
    - id: 42
      amount: 6
    - id: 126
      amount: 10
    - id: 69
      amount: 5
    - id: 145
      amount: 9
    - id: 72
      amount: 7
    time: 240
  - nodeFindList:
    - id: 90
      amount: 10
    obstacles:
    - id: 106
      amount: 35
    time: 210
  - nodeFindList:
    - id: 141
      amount: 7
    - id: 16
      amount: 6
    - id: 54
      amount: 8
    obstacles:
    - id: 90
      amount: 5
    - id: 15
      amount: 12
    - id: 85
      amount: 8
    - id: 33
      amount: 9
    - id: 89
      amount: 6
    time: 300
  - nodeFindList:
    - id: 73
      amount: 5
    - id: 72
      amount: 5
    obstacles:
    - id: 96
      amount: 8
    - id: 103
      amount: 8
    - id: 60
      amount: 8
    - id: 90
      amount: 8
    - id: 87
      amount: 8
    time: 240
  - nodeFindList:
    - id: 106
      amount: 10
    obstacles:
    - id: 1
      amount: 10
    - id: 37
      amount: 10
    - id: 93
      amount: 10
    - id: 111
      amount: 10
    time: 240
  - nodeFindList:
    - id: 15
      amount: 1
    - id: 82
      amount: 12
    - id: 87
      amount: 10
    - id: 17
      amount: 6
    - id: 62
      amount: 3
    obstacles:
    - id: 101
      amount: 7
    - id: 89
      amount: 10
    - id: 114
      amount: 9
    - id: 142
      amount: 5
    - id: 26
      amount: 5
    time: 240
  - nodeFindList:
    - id: 153
      amount: 8
    - id: 2
      amount: 10
    obstacles:
    - id: 75
      amount: 6
    - id: 144
      amount: 9
    - id: 149
      amount: 5
    - id: 150
      amount: 10
    time: 300
  - nodeFindList:
    - id: 52
      amount: 8
    - id: 29
      amount: 6
    - id: 154
      amount: 4
    obstacles:
    - id: 131
      amount: 7
    - id: 114
      amount: 8
    - id: 149
      amount: 9
    - id: 22
      amount: 6
    time: 240
  - nodeFindList:
    - id: 111
      amount: 8
    - id: 133
      amount: 8
    - id: 102
      amount: 8
    - id: 141
      amount: 8
    obstacles:
    - id: 151
      amount: 6
    - id: 111
      amount: 10
    - id: 105
      amount: 5
    - id: 60
      amount: 10
    time: 270
  - nodeFindList:
    - id: 74
      amount: 10
    - id: 15
      amount: 1
    - id: 116
      amount: 1
    - id: 19
      amount: 1
    - id: 140
      amount: 1
    obstacles:
    - id: 112
      amount: 6
    - id: 17
      amount: 6
    - id: 142
      amount: 6
    - id: 56
      amount: 6
    - id: 133
      amount: 6
    - id: 52
      amount: 6
    time: 120
  - nodeFindList:
    - id: 118
      amount: 10
    obstacles:
    - id: 97
      amount: 15
    - id: 56
      amount: 15
    time: 170
  - nodeFindList:
    - id: 96
      amount: 3
    - id: 71
      amount: 7
    - id: 146
      amount: 5
    obstacles:
    - id: 111
      amount: 6
    - id: 72
      amount: 10
    - id: 2
      amount: 10
    - id: 104
      amount: 5
    time: 300
  - nodeFindList:
    - id: 76
      amount: 7
    - id: 133
      amount: 7
    - id: 135
      amount: 7
    obstacles:
    - id: 65
      amount: 7
    - id: 137
      amount: 8
    - id: 139
      amount: 9
    - id: 112
      amount: 10
    time: 240
  - nodeFindList:
    - id: 61
      amount: 5
    - id: 129
      amount: 7
    - id: 103
      amount: 9
    - id: 128
      amount: 11
    obstacles:
    - id: 83
      amount: 10
    - id: 106
      amount: 6
    - id: 109
      amount: 6
    - id: 89
      amount: 6
    time: 240
  - nodeFindList:
    - id: 87
      amount: 5
    - id: 23
      amount: 5
    - id: 53
      amount: 5
    - id: 141
      amount: 5
    obstacles:
    - id: 88
      amount: 9
    - id: 92
      amount: 10
    - id: 130
      amount: 10
    - id: 143
      amount: 5
    time: 240
  - nodeFindList:
    - id: 110
      amount: 10
    obstacles:
    - id: 15
      amount: 8
    - id: 109
      amount: 8
    - id: 143
      amount: 8
    - id: 10
      amount: 8
    time: 170
  - nodeFindList:
    - id: 103
      amount: 4
    - id: 115
      amount: 6
    obstacles:
    - id: 108
      amount: 10
    - id: 1
      amount: 15
    - id: 86
      amount: 15
    time: 90
  - nodeFindList:
    - id: 85
      amount: 6
    - id: 86
      amount: 4
    - id: 87
      amount: 4
    - id: 15
      amount: 5
    - id: 88
      amount: 5
    - id: 93
      amount: 5
    obstacles:
    - id: 83
      amount: 6
    - id: 14
      amount: 6
    - id: 89
      amount: 6
    - id: 91
      amount: 10
    - id: 101
      amount: 6
    time: 270
  - nodeFindList:
    - id: 62
      amount: 5
    - id: 70
      amount: 5
    obstacles:
    - id: 48
      amount: 8
    - id: 138
      amount: 8
    - id: 134
      amount: 8
    - id: 135
      amount: 9
    time: 120
  - nodeFindList:
    - id: 94
      amount: 5
    - id: 96
      amount: 7
    - id: 99
      amount: 9
    obstacles:
    - id: 91
      amount: 10
    - id: 95
      amount: 10
    - id: 97
      amount: 10
    time: 300
  - nodeFindList:
    - id: 132
      amount: 5
    - id: 110
      amount: 5
    - id: 3
      amount: 7
    obstacles:
    - id: 101
      amount: 7
    - id: 6
      amount: 7
    - id: 124
      amount: 7
    - id: 130
      amount: 7
    - id: 103
      amount: 7
    time: 240
  - nodeFindList:
    - id: 26
      amount: 5
    - id: 20
      amount: 5
    - id: 25
      amount: 5
    obstacles:
    - id: 48
      amount: 9
    - id: 153
      amount: 9
    - id: 26
      amount: 9
    - id: 35
      amount: 6
    - id: 154
      amount: 7
    time: 270
  - nodeFindList:
    - id: 41
      amount: 15
    obstacles:
    - id: 40
      amount: 25
    time: 120
  - nodeFindList:
    - id: 63
      amount: 4
    - id: 110
      amount: 6
    obstacles:
    - id: 46
      amount: 10
    - id: 100
      amount: 10
    - id: 87
      amount: 10
    - id: 42
      amount: 10
    time: 170
  - nodeFindList:
    - id: 120
      amount: 10
    - id: 74
      amount: 10
    obstacles:
    - id: 50
      amount: 10
    - id: 79
      amount: 9
    - id: 105
      amount: 5
    - id: 42
      amount: 10
    - id: 63
      amount: 6
    time: 300
  - nodeFindList:
    - id: 19
      amount: 10
    - id: 116
      amount: 8
    obstacles:
    - id: 131
      amount: 8
    - id: 63
      amount: 6
    - id: 126
      amount: 10
    - id: 91
      amount: 5
    - id: 145
      amount: 9
    - id: 72
      amount: 7
    time: 240
  - nodeFindList:
    - id: 81
      amount: 10
    obstacles:
    - id: 74
      amount: 35
    time: 170
  - nodeFindList:
    - id: 141
      amount: 7
    - id: 50
      amount: 6
    - id: 54
      amount: 8
    obstacles:
    - id: 146
      amount: 5
    - id: 15
      amount: 12
    - id: 85
      amount: 8
    - id: 33
      amount: 9
    - id: 89
      amount: 6
    time: 90
  - nodeFindList:
    - id: 60
      amount: 5
    - id: 72
      amount: 5
    obstacles:
    - id: 46
      amount: 8
    - id: 103
      amount: 8
    - id: 128
      amount: 8
    - id: 34
      amount: 8
    - id: 87
      amount: 8
    time: 270
  - nodeFindList:
    - id: 74
      amount: 10
    obstacles:
    - id: 28
      amount: 10
    - id: 37
      amount: 10
    - id: 93
      amount: 10
    - id: 42
      amount: 10
    time: 105
  - nodeFindList:
    - id: 15
      amount: 1
    - id: 82
      amount: 12
    - id: 87
      amount: 10
    - id: 154
      amount: 6
    - id: 62
      amount: 3
    obstacles:
    - id: 76
      amount: 7
    - id: 89
      amount: 10
    - id: 103
      amount: 9
    - id: 142
      amount: 5
    - id: 26
      amount: 5
    time: 300
  - nodeFindList:
    - id: 74
      amount: 8
    - id: 2
      amount: 10
    obstacles:
    - id: 40
      amount: 6
    - id: 154
      amount: 9
    - id: 149
      amount: 5
    - id: 150
      amount: 10
    time: 195
  - nodeFindList:
    - id: 52
      amount: 8
    - id: 29
      amount: 6
    - id: 97
      amount: 4
    obstacles:
    - id: 131
      amount: 7
    - id: 31
      amount: 8
    - id: 149
      amount: 9
    - id: 79
      amount: 6
    time: 270
  - nodeFindList:
    - id: 42
      amount: 8
    - id: 149
      amount: 8
    - id: 63
      amount: 8
    - id: 141
      amount: 8
    obstacles:
    - id: 151
      amount: 6
    - id: 42
      amount: 10
    - id: 105
      amount: 5
    - id: 61
      amount: 10
    time: 120
  - nodeFindList:
    - id: 74
      amount: 10
    - id: 15
      amount: 1
    - id: 116
      amount: 1
    - id: 17
      amount: 1
    - id: 139
      amount: 1
    obstacles:
    - id: 112
      amount: 6
    - id: 17
      amount: 6
    - id: 142
      amount: 6
    - id: 29
      amount: 6
    - id: 133
      amount: 6
    - id: 52
      amount: 6
    time: 170
  - nodeFindList:
    - id: 146
      amount: 10
    obstacles:
    - id: 132
      amount: 15
    - id: 29
      amount: 15
    time: 160
  - nodeFindList:
    - id: 46
      amount: 3
    - id: 72
      amount: 7
    - id: 146
      amount: 5
    obstacles:
    - id: 42
      amount: 6
    - id: 72
      amount: 10
    - id: 2
      amount: 10
    - id: 104
      amount: 5
    time: 240
  - nodeFindList:
    - id: 84
      amount: 7
    - id: 133
      amount: 7
    - id: 135
      amount: 7
    obstacles:
    - id: 71
      amount: 7
    - id: 137
      amount: 8
    - id: 139
      amount: 9
    - id: 112
      amount: 10
    time: 170
  - nodeFindList:
    - id: 128
      amount: 15
    obstacles:
    - id: 154
      amount: 10
    - id: 74
      amount: 6
    - id: 79
      amount: 6
    - id: 89
      amount: 6
    time: 90
  - nodeFindList:
    - id: 87
      amount: 5
    - id: 23
      amount: 5
    - id: 154
      amount: 5
    - id: 141
      amount: 5
    obstacles:
    - id: 60
      amount: 9
    - id: 40
      amount: 10
    - id: 130
      amount: 10
    - id: 143
      amount: 5
    time: 270
  - nodeFindList:
    - id: 110
      amount: 10
    obstacles:
    - id: 15
      amount: 8
    - id: 16
      amount: 8
    - id: 143
      amount: 8
    - id: 10
      amount: 8
    time: 120
  - nodeFindList:
    - id: 103
      amount: 4
    - id: 60
      amount: 6
    obstacles:
    - id: 110
      amount: 10
    - id: 107
      amount: 15
    - id: 86
      amount: 15
    time: 240
  - nodeFindList:
    - id: 85
      amount: 6
    - id: 86
      amount: 4
    - id: 87
      amount: 4
    - id: 15
      amount: 5
    - id: 99
      amount: 5
    - id: 93
      amount: 5
    obstacles:
    - id: 60
      amount: 6
    - id: 14
      amount: 6
    - id: 89
      amount: 6
    - id: 91
      amount: 10
    - id: 84
      amount: 6
    time: 270
  - nodeFindList:
    - id: 62
      amount: 5
    - id: 61
      amount: 3
    - id: 70
      amount: 5
    obstacles:
    - id: 48
      amount: 8
    - id: 138
      amount: 8
    - id: 133
      amount: 8
    - id: 135
      amount: 9
    time: 120
  - nodeFindList:
    - id: 94
      amount: 5
    - id: 46
      amount: 7
    - id: 99
      amount: 9
    obstacles:
    - id: 91
      amount: 10
    - id: 95
      amount: 10
    - id: 132
      amount: 10
    time: 170
  - nodeFindList:
    - id: 132
      amount: 5
    - id: 110
      amount: 5
    - id: 3
      amount: 7
    obstacles:
    - id: 84
      amount: 7
    - id: 6
      amount: 7
    - id: 124
      amount: 7
    - id: 130
      amount: 7
    - id: 103
      amount: 7
    time: 300
  - nodeFindList:
    - id: 26
      amount: 5
    - id: 21
      amount: 5
    - id: 42
      amount: 5
    obstacles:
    - id: 48
      amount: 9
    - id: 74
      amount: 9
    - id: 26
      amount: 9
    - id: 25
      amount: 6
    - id: 74
      amount: 7
    time: 240
  - nodeFindList:
    - id: 73
      amount: 5
    - id: 72
      amount: 5
    obstacles:
    - id: 8
      amount: 8
    - id: 103
      amount: 8
    - id: 128
      amount: 8
    - id: 90
      amount: 8
    - id: 87
      amount: 8
    time: 170
  - nodeFindList:
    - id: 48
      amount: 15
    obstacles:
    - id: 24
      amount: 25
    time: 90
  - nodeFindList:
    - id: 63
      amount: 4
    - id: 110
      amount: 6
    obstacles:
    - id: 46
      amount: 10
    - id: 11
      amount: 10
    - id: 44
      amount: 10
    - id: 42
      amount: 10
    time: 270
  - nodeFindList:
    - id: 120
      amount: 10
    - id: 74
      amount: 10
    obstacles:
    - id: 50
      amount: 10
    - id: 79
      amount: 9
    - id: 105
      amount: 5
    - id: 42
      amount: 10
    - id: 63
      amount: 6
    time: 120
  - nodeFindList:
    - id: 19
      amount: 10
    - id: 116
      amount: 8
    obstacles:
    - id: 131
      amount: 8
    - id: 63
      amount: 6
    - id: 126
      amount: 10
    - id: 91
      amount: 5
    - id: 44
      amount: 9
    - id: 72
      amount: 7
    time: 300
  - nodeFindList:
    - id: 81
      amount: 10
    obstacles:
    - id: 74
      amount: 35
    time: 75
  - nodeFindList:
    - id: 141
      amount: 7
    - id: 50
      amount: 6
    - id: 54
      amount: 8
    obstacles:
    - id: 146
      amount: 5
    - id: 15
      amount: 12
    - id: 85
      amount: 8
    - id: 44
      amount: 9
    - id: 55
      amount: 6
    time: 270
  - nodeFindList:
    - id: 60
      amount: 5
    - id: 72
      amount: 5
    obstacles:
    - id: 46
      amount: 8
    - id: 103
      amount: 8
    - id: 128
      amount: 8
    - id: 34
      amount: 8
    - id: 44
      amount: 8
    time: 120
  - nodeFindList:
    - id: 74
      amount: 10
    obstacles:
    - id: 28
      amount: 10
    - id: 37
      amount: 10
    - id: 93
      amount: 10
    - id: 42
      amount: 10
    time: 135
  - nodeFindList:
    - id: 15
      amount: 1
    - id: 82
      amount: 12
    - id: 44
      amount: 10
    - id: 45
      amount: 6
    - id: 62
      amount: 3
    obstacles:
    - id: 84
      amount: 7
    - id: 54
      amount: 10
    - id: 103
      amount: 9
    - id: 142
      amount: 5
    - id: 26
      amount: 5
    time: 300
  - nodeFindList:
    - id: 74
      amount: 8
    - id: 44
      amount: 10
    obstacles:
    - id: 24
      amount: 6
    - id: 154
      amount: 9
    - id: 149
      amount: 5
    - id: 150
      amount: 10
    time: 240
  - nodeFindList:
    - id: 52
      amount: 8
    - id: 44
      amount: 6
    - id: 45
      amount: 4
    obstacles:
    - id: 131
      amount: 7
    - id: 31
      amount: 8
    - id: 149
      amount: 9
    - id: 79
      amount: 6
    time: 170
  - nodeFindList:
    - id: 42
      amount: 8
    - id: 149
      amount: 8
    - id: 63
      amount: 8
    - id: 141
      amount: 8
    obstacles:
    - id: 151
      amount: 6
    - id: 43
      amount: 10
    - id: 105
      amount: 5
    - id: 61
      amount: 10
    time: 210
  - nodeFindList:
    - id: 74
      amount: 10
    - id: 15
      amount: 1
    - id: 116
      amount: 1
    - id: 17
      amount: 1
    - id: 139
      amount: 1
    obstacles:
    - id: 112
      amount: 6
    - id: 44
      amount: 6
    - id: 142
      amount: 6
    - id: 45
      amount: 6
    - id: 133
      amount: 6
    - id: 52
      amount: 6
    time: 270
  - nodeFindList:
    - id: 146
      amount: 10
    obstacles:
    - id: 132
      amount: 15
    - id: 44
      amount: 15
    time: 100
  - nodeFindList:
    - id: 46
      amount: 3
    - id: 72
      amount: 7
    - id: 146
      amount: 5
    obstacles:
    - id: 42
      amount: 6
    - id: 71
      amount: 10
    - id: 110
      amount: 10
    - id: 104
      amount: 5
    time: 240
  - nodeFindList:
    - id: 84
      amount: 7
    - id: 133
      amount: 7
    - id: 135
      amount: 7
    obstacles:
    - id: 71
      amount: 7
    - id: 137
      amount: 9
    - id: 139
      amount: 9
    - id: 112
      amount: 10
    time: 270
  - nodeFindList:
    - id: 61
      amount: 5
    - id: 130
      amount: 7
    - id: 103
      amount: 9
    - id: 128
      amount: 11
    obstacles:
    - id: 154
      amount: 10
    - id: 74
      amount: 6
    - id: 79
      amount: 6
    - id: 89
      amount: 6
    time: 120
  - nodeFindList:
    - id: 44
      amount: 5
    - id: 23
      amount: 5
    - id: 22
      amount: 5
    - id: 141
      amount: 5
    obstacles:
    - id: 60
      amount: 9
    - id: 24
      amount: 10
    - id: 130
      amount: 10
    - id: 143
      amount: 5
    time: 170
  - nodeFindList:
    - id: 110
      amount: 10
    obstacles:
    - id: 15
      amount: 8
    - id: 21
      amount: 8
    - id: 143
      amount: 8
    - id: 10
      amount: 8
    time: 80
  - nodeFindList:
    - id: 103
      amount: 4
    - id: 116
      amount: 6
    obstacles:
    - id: 110
      amount: 10
    - id: 107
      amount: 15
    - id: 86
      amount: 15
    time: 240
  - nodeFindList:
    - id: 85
      amount: 6
    - id: 86
      amount: 4
    - id: 44
      amount: 4
    - id: 15
      amount: 5
    - id: 60
      amount: 5
    - id: 93
      amount: 5
    obstacles:
    - id: 99
      amount: 6
    - id: 14
      amount: 6
    - id: 89
      amount: 6
    - id: 91
      amount: 10
    - id: 136
      amount: 6
    time: 240
  - nodeFindList:
    - id: 62
      amount: 5
    - id: 61
      amount: 3
    - id: 63
      amount: 5
    obstacles:
    - id: 48
      amount: 8
    - id: 138
      amount: 8
    - id: 133
      amount: 8
    - id: 135
      amount: 9
    time: 220
  - nodeFindList:
    - id: 94
      amount: 5
    - id: 46
      amount: 7
    - id: 99
      amount: 9
    obstacles:
    - id: 91
      amount: 10
    - id: 95
      amount: 10
    - id: 132
      amount: 10
    time: 270
  - nodeFindList:
    - id: 132
      amount: 5
    - id: 110
      amount: 5
    - id: 3
      amount: 7
    obstacles:
    - id: 84
      amount: 7
    - id: 6
      amount: 7
    - id: 124
      amount: 7
    - id: 130
      amount: 7
    - id: 103
      amount: 7
    time: 120
  - nodeFindList:
    - id: 26
      amount: 5
    - id: 21
      amount: 5
    - id: 42
      amount: 5
    obstacles:
    - id: 48
      amount: 9
    - id: 74
      amount: 9
    - id: 26
      amount: 9
    - id: 25
      amount: 6
    - id: 74
      amount: 7
    time: 300
  - nodeFindList:
    - id: 29
      amount: 15
    obstacles:
    - id: 10
      amount: 25
    time: 145
  - nodeFindList:
    - id: 63
      amount: 4
    - id: 110
      amount: 6
    obstacles:
    - id: 46
      amount: 10
    - id: 124
      amount: 10
    - id: 44
      amount: 10
    - id: 42
      amount: 10
    time: 270
  - nodeFindList:
    - id: 120
      amount: 10
    - id: 84
      amount: 10
    obstacles:
    - id: 50
      amount: 10
    - id: 72
      amount: 9
    - id: 13
      amount: 5
    - id: 42
      amount: 10
    - id: 63
      amount: 6
    time: 120
  - nodeFindList:
    - id: 63
      amount: 10
    - id: 116
      amount: 8
    obstacles:
    - id: 131
      amount: 8
    - id: 63
      amount: 6
    - id: 126
      amount: 10
    - id: 91
      amount: 5
    - id: 44
      amount: 9
    - id: 72
      amount: 7
    time: 170
  - nodeFindList:
    - id: 29
      amount: 10
    obstacles:
    - id: 84
      amount: 35
    time: 90
  - nodeFindList:
    - id: 141
      amount: 7
    - id: 50
      amount: 6
    - id: 54
      amount: 8
    obstacles:
    - id: 146
      amount: 5
    - id: 77
      amount: 12
    - id: 85
      amount: 8
    - id: 44
      amount: 9
    - id: 55
      amount: 6
    time: 240
  - nodeFindList:
    - id: 60
      amount: 5
    - id: 72
      amount: 5
    obstacles:
    - id: 46
      amount: 8
    - id: 103
      amount: 8
    - id: 128
      amount: 8
    - id: 21
      amount: 8
    - id: 44
      amount: 8
    time: 170
  - nodeFindList:
    - id: 84
      amount: 10
    obstacles:
    - id: 23
      amount: 10
    - id: 37
      amount: 10
    - id: 93
      amount: 10
    - id: 42
      amount: 10
    time: 90
  - nodeFindList:
    - id: 77
      amount: 1
    - id: 82
      amount: 12
    - id: 44
      amount: 10
    - id: 62
      amount: 3
    obstacles:
    - id: 76
      amount: 7
    - id: 55
      amount: 10
    - id: 103
      amount: 9
    - id: 23
      amount: 5
    - id: 26
      amount: 5
    time: 270
  - nodeFindList:
    - id: 84
      amount: 8
    - id: 44
      amount: 10
    obstacles:
    - id: 10
      amount: 6
    - id: 0
      amount: 9
    - id: 149
      amount: 5
    - id: 150
      amount: 10
    time: 120
  - nodeFindList:
    - id: 27
      amount: 8
    - id: 44
      amount: 6
    - id: 39
      amount: 4
    obstacles:
    - id: 131
      amount: 7
    - id: 31
      amount: 8
    - id: 149
      amount: 9
    - id: 69
      amount: 6
    time: 240
  - nodeFindList:
    - id: 42
      amount: 8
    - id: 149
      amount: 8
    - id: 63
      amount: 8
    - id: 141
      amount: 8
    obstacles:
    - id: 151
      amount: 6
    - id: 42
      amount: 10
    - id: 101
      amount: 5
    - id: 61
      amount: 10
    time: 270
  - nodeFindList:
    - id: 84
      amount: 10
    - id: 77
      amount: 1
    - id: 116
      amount: 1
    - id: 63
      amount: 1
    - id: 154
      amount: 1
    obstacles:
    - id: 112
      amount: 6
    - id: 44
      amount: 6
    - id: 31
      amount: 6
    - id: 133
      amount: 6
    - id: 27
      amount: 6
    time: 120
  - nodeFindList:
    - id: 146
      amount: 10
    obstacles:
    - id: 128
      amount: 15
    - id: 44
      amount: 15
    time: 170
  - nodeFindList:
    - id: 46
      amount: 3
    - id: 72
      amount: 7
    - id: 146
      amount: 5
    obstacles:
    - id: 42
      amount: 6
    - id: 72
      amount: 10
    - id: 110
      amount: 10
    - id: 104
      amount: 5
    time: 300
  - nodeFindList:
    - id: 136
      amount: 7
    - id: 133
      amount: 7
    - id: 135
      amount: 7
    obstacles:
    - id: 71
      amount: 7
    - id: 137
      amount: 8
    - id: 77
      amount: 9
    - id: 112
      amount: 10
    time: 240
  - nodeFindList:
    - id: 61
      amount: 5
    - id: 130
      amount: 7
    - id: 103
      amount: 9
    - id: 128
      amount: 11
    obstacles:
    - id: 99
      amount: 10
    - id: 84
      amount: 6
    - id: 74
      amount: 6
    - id: 89
      amount: 6
    time: 170
  - nodeFindList:
    - id: 44
      amount: 5
    - id: 23
      amount: 5
    - id: 24
      amount: 5
    - id: 141
      amount: 5
    obstacles:
    - id: 60
      amount: 9
    - id: 10
      amount: 10
    - id: 130
      amount: 10
    - id: 143
      amount: 5
    time: 210
  - nodeFindList:
    - id: 110
      amount: 10
    obstacles:
    - id: 77
      amount: 8
    - id: 76
      amount: 8
    - id: 143
      amount: 8
    - id: 10
      amount: 8
    time: 270
  - nodeFindList:
    - id: 103
      amount: 4
    - id: 116
      amount: 6
    obstacles:
    - id: 110
      amount: 10
    - id: 107
      amount: 15
    - id: 86
      amount: 15
    time: 120
  - nodeFindList:
    - id: 85
      amount: 6
    - id: 86
      amount: 4
    - id: 44
      amount: 4
    - id: 77
      amount: 5
    - id: 60
      amount: 5
    - id: 93
      amount: 5
    obstacles:
    - id: 99
      amount: 6
    - id: 14
      amount: 6
    - id: 89
      amount: 6
    - id: 91
      amount: 10
    - id: 133
      amount: 6
    time: 300
  - nodeFindList:
    - id: 62
      amount: 5
    - id: 61
      amount: 3
    - id: 63
      amount: 5
    obstacles:
    - id: 29
      amount: 8
    - id: 138
      amount: 8
    - id: 133
      amount: 8
    - id: 135
      amount: 9
    time: 240
  - nodeFindList:
    - id: 26
      amount: 5
    - id: 21
      amount: 5
    - id: 42
      amount: 5
    obstacles:
    - id: 29
      amount: 9
    - id: 84
      amount: 9
    - id: 26
      amount: 9
    - id: 25
      amount: 6
    time: 270
